﻿<tr>
	<td><a href="../Web/Config.aspx?config_key=%%ConfigKey%%">%%ConfigName%%</a></td>
    <td>%%ConfigText1%%</td>
	
	<td>%%CreatedOn%%</td>
	<td class="text-center">
        <div class="list-icons">
            <div class="dropdown">
                <a href="#" class="list-icons-item" data-toggle="dropdown">
                    <i class="icon-menu9"></i>
                </a>

                <div class="dropdown-menu dropdown-menu-right">
                                                            
                    <button type="button" onclick="deleteAgreement('%%ConfigKey%%','%%ConfigName%%')" class="dropdown-item"><i class="icon-trash"></i> Delete</button>
                </div>
            </div>
        </div>
    </td>
</tr>

