﻿
<tbody>
    <tr>
                                                            
        <td>Recipient Id</td>
        <td>:</td>
        <td>%%RecipientId%%</td>
    </tr>
    <tr>
                                                            
        <td>Recipient Name</td>
        <td>:</td>
        <td>%%RecipientName%%</td>
    </tr>
        <tr>
                                                           
        <td>Territory Id</td>
        <td>:</td>
        <td>%%TerritoryId%%</td>
    </tr>
        <tr>
                                                            
        <td>Currency </td>
        <td>:</td>
        <td>%%Currency%%</td>
    </tr>
        <tr>
                                                            
        <td>Period</td>
        <td>:</td>
        <td>%%Period%%</td>
    </tr>
    <tr>
                                                            
        <td>Position</td>
        <td>:</td>
        <td>%%Position%%</td>
    </tr>
    <tr>
                                                            
        <td>Fiscal year</td>
        <td>:</td>
        <td>%%Fiscalyear%%</td>
    </tr>
</tbody>