﻿<tr>


</tr>

<tr>
<td>%%ColumnName%%</td>
<td>%%DataType%%</td>
<td>
                                                            
        <div class="form-group">
                                                            
    <select id="dd_%%ColumnName%%" class="form-control MapColums">
        <option value=''>-- select Field --</option>
		%%OPTIONS%%
       
    </select>
                                                    
                                                              
    </div>
</td>
                                                       
                                                       
</tr>