﻿<tr>
   
    <td ><a class="btn btn-link" target="_blank" href="../Web/Recipients.aspx?recip_key=%%RecipientKey%%">%%RecipientName%%</a></td>
	<td>%%Role%%</td>
    <td>%%Manager%%</td>
    
    <td>%%Territory%%</td>
</tr>